12 Replicate simulation – Intro to mrgsolve
…
12.2 Simulate with uncertainty

12.2.1 Load uncertainty estimates

We have bootstrap parameter estimates for this model here

boot <- read_csv(here("data/boot-106.csv"))
boot

# A tibble: 1,000 × 16
   run   THETA1 THETA2 THETA3 THETA4 THETA5 THETA6   THETA7 THETA8 `OMEGA(1,1)`
   <chr>  <dbl>  <dbl>  <dbl>  <dbl>  <dbl>  <dbl>    <dbl>  <dbl>        <dbl>
 1 001    0.494   4.19   1.20   4.20   1.24  0.488 -0.0615   0.377        0.293
 2 002    0.405   4.07   1.14   4.23   1.32  0.536 -0.103    0.517        0.241
 3 003    0.500   4.09   1.15   4.21   1.27  0.413 -0.0752   0.523        0.184
 4 004    0.578   4.16   1.20   4.18   1.30  0.518 -0.0502   0.418        0.270
 5 005    0.499   4.14   1.16   4.25   1.22  0.436 -0.0686   0.394        0.261
 6 006    0.556   4.15   1.17   4.19   1.27  0.524 -0.0143   0.365        0.230
 7 007    0.352   4.05   1.13   4.21   1.35  0.510 -0.0225   0.439        0.257
 8 008    0.385   4.11   1.18   4.23   1.30  0.483 -0.0354   0.351        0.182
 9 009    0.512   4.18   1.22   4.16   1.16  0.501  0.00906  0.493        0.283
10 010    0.506   4.17   1.22   4.19   1.26  0.451 -0.0736   0.299        0.257
# ℹ 990 more rows
# ℹ 6 more variables: `OMEGA(2,1)` <dbl>, `OMEGA(2,2)` <dbl>,
#   `OMEGA(3,1)` <dbl>, `OMEGA(3,2)` <dbl>, `OMEGA(3,3)` <dbl>,
#   `SIGMA(1,1)` <dbl>
…
Again, it’s a good idea to test this out

simu(23, mod, data, thetas, omegas, sigmas) %>% as_tibble()

# A tibble: 86,000 × 8
      ID  TIME    CL IPRED     Y    WT  DOSE  irep
   <dbl> <dbl> <dbl> <dbl> <dbl> <dbl> <dbl> <dbl>
 1     1   0    2.08  146.  147.  72.5    10    23
 2     1   0.1  2.08  159.  178.  72.5    10    23
 3     1   0.2  2.08  170.  121.  72.5    10    23
 4     1   0.3  2.08  181.  203.  72.5    10    23
 5     1   0.4  2.08  190.  166.  72.5    10    23
 6     1   0.5  2.08  199.  246.  72.5    10    23
 7     1   0.6  2.08  207.  136.  72.5    10    23
 8     1   0.7  2.08  215.  256.  72.5    10    23
 9     1   0.8  2.08  221.  126.  72.5    10    23
10     1   0.9  2.08  227.  253.  72.5    10    23
# ℹ 85,990 more rows
…
